﻿"Multi-Country Media Trend","","","Geography :: Worldwide, Middle East - Africa, Asia Pacific, Europe, Latin America, North America, China, India, United States","","","","","","My Metrix"
"Wikimedia Foundation Sites","","","Location :: Home and Work","","","","","","(c)2013 comScore, Inc"
"","","","Time Period :: January 2012 - March 2013","","","","","",""
"","","","Target :: Persons 15+","","","","","",""
"","","","Media :: Wikimedia Foundation Sites","","","","","",""
"","","","Measures :: Total Pages Viewed (MM)","","","","","",""
"","","","Date :: 4/15/2013","","","","","",""

"","","[P] Wikimedia Foundation Sites","","","","","","","","","","","","",""
"","","Jan-2012","Feb-2012","Mar-2012","Apr-2012","May-2012","Jun-2012","Jul-2012","Aug-2012","Sep-2012","Oct-2012","Nov-2012","Dec-2012","Jan-2013","Feb-2013","Mar-2013"
"1","    World-Wide","7,027","6,733","6,782","6,486","6,951","6,351","6,176","6,087","6,108","6,378","6,160","6,110","6,623","6,189","7,109"
"2","    Europe","2,875","2,622","2,538","2,462","2,710","2,413","2,226","2,215","2,300","2,490","2,512","2,474","2,881","2,533","2,789"
"3","    North America","1,705","1,725","1,676","1,707","1,737","1,622","1,653","1,574","1,573","1,656","1,525","1,660","1,614","1,519","1,903"
"4","    United States","1,360","1,391","1,334","1,362","1,396","1,282","1,331","1,279","1,280","1,339","1,215","1,349","1,299","1,237","1,561"
"5","    Asia Pacific","1,602","1,482","1,558","1,424","1,510","1,428","1,501","1,452","1,365","1,331","1,246","1,262","1,353","1,237","1,372"
"6","    Latin America","456","539","604","539","607","525","457","503","525","536","497","365","413","580","687"
"7","    Middle East - Africa","390","365","407","355","387","363","339","343","343","365","380","349","363","320","358"
"8","    India","184","200","212","198","217","233","237","242","219","230","222","236","251","241","272"
"9","    China","122","111","129","96","115","50","46","43","31","25","23","23","21","15","21"
"","MyMetrix Legend","","","","","",""
"","[P]         Property","","","","","",""
"","[M]         Media Title","","","","","",""
"","[C]         Channel","","","","","",""
"","[S]         Subchannel","","","","","",""
"","[G]         Group","","","","","",""
"","[SG]         Subgroup","","","","","",""
"","[E]         Custom Entity","","","","","",""
"","[N]         Ad Network","","","","","",""
"","[A#]         Alternate Rollup","","","","","",""
"","[X1]         Extended Network","","","","","",""
"","[BSN]         Buy Side Advertising Network","","","","","",""
"","[DSP]         Demand Side Platform","","","","","",""
"","[EX]         Exchanges","","","","","",""
"","[SSP]         Sell Side Platform","","","","","",""
"","(U)         Fully Unified - Used to identify entities that are measured and reported completely based on Panel-Centric Unified (Panel + Census) measurement.","","","","","",""
"","(u)         Partially Unified - Used to identify entities with at least one child entity that is Fully Unified, but not all.","","","","","",""
"","C         Census Only - Used to identify entities that are measured and reported completely based on Census without panel.","","","","","",""
"","++         Used to identify entities that are projected completely based on the entity?s census tagged data.","","","","","",""
"","+         Used to identify entities with at least one child entity that is projected completely based on the child?s census tagged data , but not all.","","","","","",""
"","w/History         Trend combines media previously reported under different parent and/or different level.","","","","","",""
"","*         Indicates that the entity has assigned traffic to certain pages in the domain to other entities","","","","","",""
"","**         Indicates that the entity is an advertising network.","","","","","",""
"","(v)         Indicates that the advertising network has been verified by comScore.","","","","","",""
"","...         Indicates data used fell below minimum reporting standards and/or data not available.","","","","","",""
"","N/A         Indicates data is not available in the data set for reporting for the specified time period.","","","","","",""
"","#         Caution - small base may result in unstable projection.","","","","","",""
"","##         Directional purposes only - base too unstable for reliable projection.","","","","","",""
""," ","","","","","",""
"","","","","","","",""
"","US PC centric data from August 2012 moving forward incorporates three significant enumeration and methodological enhancements. To learn more, please access this link http://tinyurl.com/comScoreUSEnumerationChange
","","","","","",""

