﻿"Multi-Country Media Trend","","","Geography :: Worldwide, Middle East - Africa, Asia Pacific, Europe, Latin America, North America, China, India","","","","","","My Metrix"
"Wikimedia Foundation Sites","","","Location :: Home and Work","","","","","","(c)2012 comScore, Inc"
"","","","Time Period :: May 2011 - July 2012","","","","","",""
"","","","Target :: Persons 15+","","","","","",""
"","","","Media :: Wikimedia Foundation Sites","","","","","",""
"","","","Measures :: % Reach","","","","","",""
"","","","Date :: 8/29/2012","","","","","",""

"","","[P] Wikimedia Foundation Sites","","","","","","","","","","","","",""
"","","May-2011","Jun-2011","Jul-2011","Aug-2011","Sep-2011","Oct-2011","Nov-2011","Dec-2011","Jan-2012","Feb-2012","Mar-2012","Apr-2012","May-2012","Jun-2012","Jul-2012"
"1","    North America","39.5","39.1","40.5","42.4","44.4","45.4","44.7","44.8","47.3","46.3","45.2","45.2","45.6","43.9","44.2"
"2","    Europe","44.0","41.7","39.6","40.9","44.6","47.0","47.1","45.5","48.1","46.4","46.2","44.8","46.8","43.8","41.0"
"3","    Latin America","41.6","39.6","35.4","43.0","45.5","45.3","44.2","35.0","36.3","39.6","44.6","41.8","44.2","40.9","36.8"
"4","    India","31.4","32.1","33.6","35.4","35.6","34.9","35.4","35.1","36.4","34.6","34.5","32.3","33.7","34.5","35.0"
"5","    World-Wide","29.9","28.9","28.2","30.0","32.0","33.3","33.0","31.7","33.2","32.8","33.3","32.0","33.2","31.5","30.2"
"6","    Middle East - Africa","28.5","25.8","24.6","25.9","29.0","32.2","31.5","31.6","32.9","32.2","32.4","30.9","32.3","29.7","26.6"
"7","    Asia Pacific","15.1","15.2","15.7","16.7","17.4","17.9","17.7","17.4","18.1","17.9","18.4","17.2","17.7","17.6","17.6"
"8","    China","1.1","1.2","1.5","1.6","1.7","2.2","2.2","2.7","2.6","2.4","2.8","2.0","1.8","1.8","1.7"
"","Media Metrix 2.0 Legend","","","","","",""
"","[P]         Property","","","","","",""
"","[M]         Media Title","","","","","",""
"","[C]         Channel","","","","","",""
"","[S]         Subchannel","","","","","",""
"","[G]         Group","","","","","",""
"","[SG]         Subgroup","","","","","",""
"","[E]         Custom Entity","","","","","",""
"","[N]         Ad Network","","","","","",""
"","[A#]         Alternate Rollup","","","","","",""
"","[X1]         Extended Network","","","","","",""
"","[BSN]         Buy Side Advertising Network","","","","","",""
"","[DSP]         Demand Side Platform","","","","","",""
"","[EX]         Exchanges","","","","","",""
"","[SSP]         Sell Side Platform","","","","","",""
"","(U)         Fully Unified - Used to identify entities that are measured and reported completely based on Panel-Centric Unified (Panel + Census) measurement.","","","","","",""
"","(u)         Partially Unified - Used to identify entities with at least one child entity that is Fully Unified, but not all.","","","","","",""
"","C         Census Only - Used to identify entities that are measured and reported completely based on Census without panel.","","","","","",""
"","++         Used to identify entities that are projected completely based on the entity?s census tagged data.","","","","","",""
"","+         Used to identify entities with at least one child entity that is projected completely based on the child?s census tagged data , but not all.","","","","","",""
"","w/History         Trend combines media previously reported under different parent and/or different level.","","","","","",""
"","*         Indicates that the entity has assigned traffic to certain pages in the domain to other entities","","","","","",""
"","**         Indicates that the entity is an advertising network.","","","","","",""
"","(v)         Indicates that the advertising network has been verified by comScore.","","","","","",""
"","...         Indicates data used fell below minimum reporting standards and/or data not available.","","","","","",""
"","N/A         Indicates data is not available in the data set for reporting for the specified time period.","","","","","",""
"","#         Caution - small base may result in unstable projection.","","","","","",""
"","##         Directional purposes only - base too unstable for reliable projection.","","","","","",""
""," ","","","","","",""
"","","","","","","",""
"","
comScore made an update to Worldwide population estimate. Please refer to http://mymetrix.comscore.com/app/ExtendedMMXUniversalFootNote.aspx for more information.","","","","","",""

<span id="lblFileNotFound" style="font-size:X-Large;">The Requested File Could Not be Found.</span>