﻿"Multi-Country Media Trend","","","Geography :: Worldwide, Middle East - Africa, Asia Pacific, Europe, Latin America, North America, China, India","","","","","","My Metrix"
"Wikimedia Foundation Sites","","","Location :: Home and Work","","","","","","(c)2012 comScore, Inc"
"","","","Time Period :: November 2010 - January 2012","","","","","",""
"","","","Target :: Persons 15+","","","","","",""
"","","","Media :: Wikimedia Foundation Sites","","","","","",""
"","","","Measures :: % Reach","","","","","",""
"","","","Date :: 2/21/2012","","","","","",""

"","","[P] Wikimedia Foundation Sites","","","","","","","","","","","","",""
"","","Nov-2010","Dec-2010","Jan-2011","Feb-2011","Mar-2011","Apr-2011","May-2011","Jun-2011","Jul-2011","Aug-2011","Sep-2011","Oct-2011","Nov-2011","Dec-2011","Jan-2012"
"1","    Europe","45.8","43.6","46.4","41.6","43.1","40.8","44.0","41.7","39.6","40.9","44.6","47.0","47.1","45.5","48.1"
"2","    North America","42.0","42.7","43.2","39.4","40.1","38.0","39.5","39.1","40.5","42.4","44.4","45.4","44.7","44.8","47.3"
"3","    India","33.1","33.7","35.9","30.6","30.4","29.6","31.4","32.1","33.6","35.4","35.6","34.9","35.4","35.1","36.4"
"4","    Latin America","42.4","34.8","35.0","36.3","41.3","38.7","41.6","39.6","35.4","43.0","45.5","45.3","44.2","35.0","36.3"
"5","    World-Wide","31.3","29.9","31.0","28.3","29.6","27.9","29.9","28.9","28.2","30.0","32.0","33.3","33.0","31.7","33.2"
"6","    Middle East - Africa","27.6","27.4","28.2","25.8","28.0","25.7","28.5","25.8","24.6","25.9","29.0","32.2","31.5","31.6","32.9"
"7","    Asia Pacific","15.7","15.2","15.9","14.2","14.7","14.0","15.1","15.2","15.7","16.7","17.4","17.9","17.7","17.4","18.1"
"8","    China","1.1","1.2","1.0","0.9","0.9","0.9","1.1","1.2","1.5","1.6","1.7","2.2","2.2","2.7","2.6"
"","Media Metrix 2.0 Legend","","","","","",""
"","[P]         Property","","","","","",""
"","[M]         Media Title","","","","","",""
"","[C]         Channel","","","","","",""
"","[S]         Subchannel","","","","","",""
"","[G]         Group","","","","","",""
"","[SG]         Subgroup","","","","","",""
"","[E]         Custom Entity","","","","","",""
"","[N]         Ad Network","","","","","",""
"","[A#]         Alternate Rollup","","","","","",""
"","[X1]         Extended Network","","","","","",""
"","(U)         Fully Unified - Used to identify entities that are measured and reported completely based on Panel-Centric Unified (Panel + Census) measurement.","","","","","",""
"","(u)         Partially Unified - Used to identify entities with at least one child entity that is Fully Unified, but not all.","","","","","",""
"","w/History         Trend combines media previously reported under different parent and/or different level.","","","","","",""
"","*         Indicates that the entity has assigned traffic to certain pages in the domain to other entities","","","","","",""
"","**         Indicates that the entity is an advertising network.","","","","","",""
"","(v)         Indicates that the advertising network has been verified by comScore.","","","","","",""
"","...         Indicates data used fell below minimum reporting standards and/or data not available.","","","","","",""
"","N/A         Indicates data is not available in the data set for reporting for the specified time period.","","","","","",""
"","#         Caution - small base may result in unstable projection.","","","","","",""
"","##         Directional purposes only - base too unstable for reliable projection.","","","","","",""
""," ","","","","","",""
"","Details on minimum reporting standards are located at: http://mymetrix.comscore.com/mmx/definitions_minreportingstandards.asp","","","","","",""
"","","","","","","",""
"","
comScore made an update to Worldwide population estimate. Please refer to http://mymetrix.comscore.com/app/ExtendedMMXUniversalFootNote.aspx for more information.","","","","","",""

