﻿"Media Trend","","","Geography :: Worldwide","","","","","","My Metrix"
"123HELPME.COM,17U.COM,5156EDU.COM,5BALLOV.RU,Abach...","","","Location :: Home and Work","","","","","","(c)2013 comScore, Inc"
"","","","Time Period :: January 2012 - March 2013","","","","","",""
"","","","Target :: Total Audience","","","","","",""
"","","","Media :: 123HELPME.COM,17U.COM,5156EDU.COM,5BALLOV.RU,Abach...","","","","","",""
"","","","Measures :: Total Unique Visitors (000)","","","","","",""
"","","","Date :: 4/15/2013","","","","","",""

"","","","Jan-2012","Feb-2012","Mar-2012","Apr-2012","May-2012","Jun-2012","Jul-2012","Aug-2012","Sep-2012","Oct-2012","Nov-2012","Dec-2012","Jan-2013","Feb-2013","Mar-2013"
"","","    Total Internet : Total Audience ","1,450,588","1,448,160","1,471,414","1,477,810","1,484,382","1,491,181","1,498,415","1,500,916","1,506,929","1,513,410","1,519,555","1,525,501","1,530,895","1,526,768","1,554,797"
"1","[P]","    Wikimedia Foundation Sites","482,157","475,699","489,402","473,380","492,393","469,644","451,821","456,255","474,864","488,364","484,489","472,552","488,473","482,999","517,610"
"2","[C](U)","    Yahoo! Answers","255,897","250,048","257,704","247,396","248,834","241,753","231,699","285,149","290,423","309,347","306,205","294,797","313,515","303,340","313,820"
"3","[C]","    Baidu Answers","135,923","145,462","159,364","150,837","147,236","151,130","162,873","163,402","158,907","163,801","162,524","163,143","162,348","141,707","162,379"
"4","[C]","    Baidu Encyclopedia","83,530","99,302","102,442","95,174","92,660","93,376","99,357","98,440","91,891","97,166","100,417","101,704","99,365","85,217","105,082"
"5","[P](U)","    Answers.com Sites","80,319","81,167","84,201","83,222","89,732","80,433","75,602","84,121","93,320","100,413","96,951","91,098","93,216","89,943","101,728"
"6","[P](U)","    Wikia Sites","50,086","47,809","50,647","48,711","50,808","50,505","50,541","52,108","53,111","59,358","59,266","59,631","62,446","54,423","57,337"
"7","[C]","    SINA iAsk","46,355","49,887","49,259","37,429","33,053","35,169","40,080","39,639","42,383","47,115","50,160","48,162","47,339","37,151","47,746"
"8","[P](U)","    WORDREFERENCE.COM","15,671","16,464","17,733","16,573","18,354","15,998","24,285","25,495","29,422","32,623","31,470","25,329","29,938","31,250","34,517"
"9","[P](u)","    Encyclopaedia Britannica","18,604","18,661","18,685","16,951","16,757","14,168","13,292","14,706","17,690","20,648","19,831","18,527","22,007","22,394","23,714"
"10","[C]","    Goo Teaching","25,084","23,966","25,802","23,964","25,072","24,349","25,400","25,617","25,350","24,148","23,990","23,828","24,918","22,713","23,613"
"11","[P]","    URBANDICTIONARY.COM","14,705","14,138","13,170","13,240","14,082","14,240","13,934","13,917","14,118","14,129","14,034","13,979","15,056","14,227","16,382"
"12","[M](U)","    HOWSTUFFWORKS.COM*","14,037","13,631","13,628","12,406","12,975","11,247","10,913","12,507","13,385","15,697","14,959","12,663","14,414","13,137","13,532"
"13","[P](U)","    WISEGEEK.COM","7,700","7,688","8,055","7,719","9,102","7,254","6,659","7,742","8,767","10,563","10,642","10,608","12,859","13,201","13,402"
"14","[M]","    REVERSO.NET*","11,490","11,326","11,705","10,985","11,738","10,157","8,837","8,687","10,930","12,081","12,215","11,476","11,974","11,480","12,591"
"15","[P]","    ARCHIVE.ORG","11,491","10,531","8,243","7,502","8,583","7,476","8,247","8,813","9,510","9,527","10,258","9,938","11,655","10,617","11,441"
"16","[M]","    ICIBA.COM","6,637","6,893","6,723","5,601","6,154","5,896","5,637","5,957","6,627","6,651","7,075","7,109","6,666","5,179","7,421"
"17","[C]","    SCIENCEDIRECT.COM","4,211","4,844","6,355","7,261","7,198","4,893","4,291","4,135","5,675","7,343","7,075","6,261","6,729","6,050","7,359"
"18","[P]","    BIBLEGATEWAY.COM","5,280","5,429","5,238","5,334","5,572","5,202","4,804","5,110","5,698","5,778","5,508","5,685","5,957","5,927","6,599"
"19","[M](U)","    Demand Media Network","6,272","6,187","6,524","6,211","7,040","5,494","5,392","5,769","6,519","6,765","5,953","5,131","5,741","5,334","5,551"
"20","[P]","    LAWTIME.CN","2,584","3,111","2,384","2,358","1,204","1,517","2,523","3,352","3,527","3,698","3,775","4,501","5,286","3,129","5,476"
"21","[P]","    DICT.CC","4,153","4,052","3,814","3,992","4,432","3,969","3,872","3,807","3,960","3,635","3,828","3,650","4,325","4,427","4,726"
"22","[C](U)","    Yahoo! Dictionary","8,595","7,985","8,024","7,370","7,457","6,826","6,825","6,478","6,424","6,519","5,881","4,875","4,988","4,327","4,643"
"23","[M]","    WER-WEISS-WAS.DE","5,053","4,889","5,198","5,130","5,687","5,155","5,186","4,904","4,439","4,850","4,802","4,364","5,104","4,273","4,495"
"24","[C](U)","    ANSWERBAG.COM*","3,296","3,699","4,523","4,270","4,753","3,591","3,393","3,905","3,797","4,153","3,937","4,056","4,405","4,090","4,365"
"25","[P]","    LEXILOGOS.COM","5,524","5,208","5,583","5,161","5,509","4,942","4,308","3,873","4,195","4,265","4,277","4,428","4,343","3,908","4,105"
"26","[M]","    LAROUSSE.FR","2,098","2,394","2,346","2,366","2,465","2,167","1,744","1,793","2,512","3,120","3,225","3,255","3,346","3,303","3,738"
"27","[P]","    TURNITIN.COM","1,734","2,240","2,949","2,564","2,427","1,387","932","1,551","2,852","3,660","3,316","2,971","2,370","2,941","3,668"
"28","[P](U)","    POEMHUNTER.COM","3,011","3,238","3,141","2,966","3,344","2,505","2,216","2,264","2,706","3,340","3,271","3,111","3,417","3,672","3,609"
"29","[P]","    IXL.COM","4,572","4,634","4,533","3,552","3,133","2,545","2,451","2,317","3,075","3,658","3,692","2,760","3,601","3,424","3,386"
"30","[P]","    SCIELO.BR","2,100","2,344","3,522","2,342","2,482","1,864","1,261","1,934","2,217","2,354","2,384","1,491","1,410","2,151","3,343"
"31","[P]","    DUDEN.DE","1,543","1,433","1,618","1,406","1,568","1,722","1,585","1,619","2,005","2,181","2,208","2,250","2,973","2,819","3,033"
"32","[C]","    Naver.com Knowledge iN","16,776","14,724","13,234","12,766","13,044","11,704","11,097","10,516","10,054","10,090","9,149","8,618","9,424","3,095","2,995"
"33","[P]","    UN.ORG","1,931","2,502","2,805","2,187","2,699","2,159","1,688","1,821","2,578","2,629","2,802","2,175","2,354","2,184","2,993"
"34","[P]","    DEFINICION.DE","1,681","2,509","3,001","2,415","3,007","2,360","1,655","2,959","3,391","3,680","3,251","1,474","2,099","2,845","2,771"
"35","[P]","    WORLDCAT.ORG","2,167","2,489","2,491","2,315","2,179","1,686","1,866","1,641","2,295","2,546","2,455","2,361","2,448","2,512","2,763"
"36","[P]","    CONSUMERREPORTS.ORG","2,413","2,302","2,448","2,163","2,411","2,288","2,300","2,770","2,918","3,141","3,702","3,181","3,281","3,015","2,710"
"37","[P]","    BIBLIOTEKAR.RU","2,130","1,900","2,131","2,039","2,442","1,851","1,152","1,078","2,135","2,727","2,387","2,670","2,436","2,313","2,581"
"38","[P]","    COINMILL.COM","2,894","2,067","2,289","1,930","2,251","2,087","2,057","1,897","1,668","1,971","2,309","2,141","2,433","2,473","2,570"
"39","[P]","    5156EDU.COM","1,361","1,903","1,879","1,772","1,662","1,776","1,573","1,712","1,897","2,114","2,268","2,199","2,159","1,486","2,438"
"40","[P]","    THINKEXIST.COM","5,716","5,809","5,457","5,079","5,355","4,694","3,721","3,577","3,728","3,457","2,881","2,625","2,353","2,206","2,286"
"41","[P]","    MIRSOVETOV.RU","2,630","2,474","2,704","2,242","2,338","2,173","2,049","2,083","1,980","2,304","2,224","2,373","2,288","2,094","2,267"
"42","[P]","    TRANSLATED.NET","1,159","1,059","1,158","1,067","1,347","1,382","1,295","1,317","1,556","1,707","1,932","1,844","2,145","1,821","2,144"
"43","[P]","    SPISHY.RU","1,362","1,534","1,524","1,845","1,612","282","125","259","2,970","2,899","2,773","2,955","2,549","2,576","2,013"
"44","[P]","    ITUSOZLUK.COM","3,892","3,216","3,418","3,422","3,611","3,033","2,661","2,931","2,842","2,652","2,724","2,584","2,552","1,863","1,996"
"45","[C]","    Naver.com Dictionary","6,069","5,082","5,100","5,294","5,709","5,393","5,145","4,746","4,981","4,367","4,594","4,500","3,807","1,375","1,941"
"46","[P]","    TURKCEBILGI.COM","2,310","2,243","2,643","2,616","2,312","1,407","1,313","1,249","1,660","2,175","2,247","2,004","1,819","1,584","1,915"
"47","[P]","    BIOGRAFIASYVIDAS.COM","1,829","2,266","2,740","2,420","2,898","2,102","1,512","2,056","2,663","2,684","2,284","1,068","1,379","1,556","1,914"
"48","[P]","    123HELPME.COM","1,318","1,647","1,829","1,651","1,903","1,066","701","741","1,426","1,757","1,899","1,442","1,282","1,522","1,901"
"49","[P]","    ONLINECONVERSION.COM","1,892","2,169","1,959","1,601","1,987","1,730","1,513","1,402","1,508","1,618","1,402","1,485","1,660","1,621","1,764"
"50","[P]","    GUNS.RU","2,235","2,362","2,438","2,202","2,135","1,904","1,911","2,047","1,922","2,116","1,957","2,128","2,148","1,808","1,710"
"51","[M]","    WEBOPEDIA.COM","1,563","1,618","1,525","1,569","1,512","1,329","1,475","1,431","1,773","1,601","1,515","1,314","1,428","1,388","1,678"
"52","[P]","    ArticlesBase.com Sites","1,005","985","1,366","1,327","1,553","1,325","1,037","1,221","1,354","1,379","1,385","1,064","1,086","1,222","1,593"
"53","[P]","    Farlex.com Sites","1,160","1,207","1,292","1,247","1,317","939","815","3,306","867","891","822","888","892","1,220","1,545"
"54","[P]","    SERIALSSOLUTIONS.COM","1,071","1,156","1,466","1,451","1,136","855","933","978","1,203","1,718","1,558","1,087","1,212","1,460","1,536"
"55","[P]","    ACRONYMFINDER.COM","1,738","1,715","1,731","1,852","1,869","1,788","1,560","1,882","1,873","1,683","1,497","1,347","1,571","1,342","1,528"
"56","[P]","    ASKMEHELPDESK.COM","2,079","2,083","2,087","2,354","2,310","2,766","2,780","2,177","1,982","1,858","1,659","1,455","1,478","1,194","1,389"
"57","[P]","    SLOVO.WS","779","883","776","979","966","142","64","143","1,776","1,739","1,466","1,542","1,388","1,385","1,374"
"58","[P]","    KLERK.RU","1,329","1,446","1,454","1,367","1,186","991","997","895","937","1,203","1,108","1,212","1,429","1,311","1,362"
"59","[P]","    BrainPOP","1,275","1,482","1,284","1,071","1,122","578","336","697","1,205","1,489","1,249","1,135","1,179","1,349","1,335"
"60","[P]","    BOOKZ.RU","1,635","1,401","1,299","1,066","1,252","1,255","1,169","1,154","1,313","1,375","1,257","1,222","1,378","1,327","1,331"
"61","[P]","    TRANSLIT.RU","1,417","1,490","1,468","1,408","1,322","1,203","1,205","1,159","1,374","1,500","1,540","1,595","1,364","1,177","1,280"
"62","[P]","    PEOPLES.RU","1,878","1,801","2,176","2,039","1,884","1,521","1,183","1,045","1,278","1,411","1,320","1,330","1,254","1,209","1,260"
"63","[P]","    NOLO.COM","670","748","846","572","735","648","742","614","692","844","695","949","1,016","998","1,216"
"64","[P]","    EMERALDINSIGHT.COM","836","899","1,086","1,162","982","670","577","718","903","1,213","1,217","1,085","926","853","1,211"
"65","[P]","    ENGLISCH-HILFEN.DE","1,046","1,002","1,229","1,066","1,318","964","598","603","1,008","1,106","1,221","1,125","1,054","1,115","1,194"
"66","[P]","    CALEND.RU","1,351","1,524","1,347","1,768","1,475","1,349","1,048","1,187","1,528","1,577","1,515","1,150","1,155","1,169","1,186"
"67","[P]","    MIJNWOORDENBOEK.NL","1,321","1,316","1,394","1,246","1,205","1,105","914","781","1,141","1,165","1,187","1,222","1,266","1,032","1,174"
"68","[P]","    SMARTDRAW.COM","1,428","1,247","1,320","1,115","1,184","1,070","1,051","1,056","972","1,250","1,171","929","1,023","998","1,136"
"69","[P]","    MOREWORDS.COM","1,164","1,110","1,104","963","825","698","657","567","784","909","920","881","1,120","979","1,126"
"70","[P]","    ARABIC-KEYBOARD.ORG","1,531","1,414","1,386","1,297","1,413","1,305","1,148","1,065","1,008","1,185","1,151","1,201","1,241","1,391","1,117"
"71","[P]","    ANGLAISFACILE.COM","1,563","1,373","1,396","1,193","1,686","1,276","835","665","1,241","1,329","1,247","1,208","1,366","1,281","1,116"
"72","[P](u)","    QUESTIA.COM","1,118","1,320","1,370","1,386","1,102","751","587","563","812","910","935","698","736","1,007","1,081"
"73","[P]","    PWN.PL","1,183","1,034","1,064","947","1,106","954","592","573","933","1,112","1,088","981","1,250","1,004","1,056"
"74","[M]","    QUIBBLO.COM","793","984","1,176","1,296","1,511","1,370","1,479","1,341","1,414","1,211","1,102","999","992","754","1,043"
"75","[P]","    SO100.CN","303","603","251","144","293","724","703","873","943","861","1,062","1,317","1,226","546","1,026"
"76","[P]","    DEXONLINE.RO","892","859","821","656","822","728","601","583","757","897","886","821","950","948","1,017"
"77","[P]","    PHRASES.ORG.UK","1,210","1,156","1,114","976","979","984","854","944","913","1,080","698","974","1,055","1,075","1,010"
"78","[P]","    SLD.CU","1,059","1,356","1,515","1,316","1,592","1,156","894","971","988","1,181","1,112","721","736","859","928"
"79","[P](U)","    ALTALEX.COM","386","444","415","347","369","863","812","538","824","977","968","817","984","864","902"
"80","[P]","    ALC.CO.JP","1,244","1,159","1,075","1,194","1,230","1,215","1,205","984","1,039","1,025","970","990","1,059","890","888"
"81","[P]","    INGENTACONNECT.COM","527","648","729","810","579","511","616","516","556","714","617","697","569","792","863"
"82","[P]","    BUSINESSBALLS.COM","1,043","1,086","978","869","1,065","842","676","673","778","877","774","924","975","700","840"
"83","[P]","    SYNONYMES.COM","690","827","884","690","856","641","473","453","697","684","823","640","697","841","839"
"84","[P]","    VERTALEN.NU","968","884","891","766","811","785","627","632","720","797","752","802","791","688","827"
"85","[P]","    OMNIGLOT.COM","676","655","702","670","650","682","588","552","605","703","667","768","740","655","816"
"86","[P]","    ALDEBARAN.RU","1,350","1,179","1,281","1,006","1,123","1,058","1,049","1,046","989","1,049","997","884","1,140","861","815"
"87","[P]","    BNF.FR","864","718","626","671","706","458","427","481","581","813","810","835","866","740","812"
"88","[P]","    SOZLUK.NET","1,098","886","868","873","820","644","572","547","678","732","777","763","879","685","806"
"89","[P]","    QUECHOISIR.ORG","995","724","632","520","512","637","593","507","628","861","774","788","648","862","786"
"90","[P]","    POETS.ORG","500","629","616","745","665","428","317","359","485","585","603","616","583","639","768"
"91","[P]","    HONEYWELL.COM","621","604","586","688","659","539","698","533","609","807","553","656","771","720","757"
"92","[P]","    ENGLISHPAGE.COM","672","722","766","593","723","684","408","439","673","805","837","644","639","751","755"
"93","[P]","    UNIVERSALIS.FR","511","515","609","728","728","437","258","238","459","636","610","647","604","712","730"
"94","[P]","    OCLC.ORG","226","377","376","346","325","259","336","342","441","422","371","407","504","631","711"
"95","[P]","    VDICT.COM","861","1,035","1,101","1,102","956","856","847","845","774","798","696","592","689","500","710"
"96","[P]","    ZARGAN.COM","1,070","958","1,015","858","777","632","579","576","645","770","782","799","745","627","710"
"97","[P]","    REPEC.ORG","592","500","632","709","508","430","431","428","494","783","660","649","691","563","704"
"98","[P]","    TRADUCEGRATIS.COM","1,086","1,094","971","823","826","756","733","659","759","748","818","647","655","514","652"
"99","[P]","    JEWISHVIRTUALLIBRARY.ORG","490","495","512","445","621","394","283","367","521","472","511","528","518","482","644"
"100","[C]","    LIBRARYTHING.COM","839","618","499","476","438","525","356","546","486","528","502","421","497","552","624"
"101","[P]","    SCIELO.CL","684","913","987","919","1,084","759","635","668","829","861","877","556","505","463","607"
"102","[P]","    HOWTODOTHINGS.COM","699","785","796","957","924","810","661","637","833","727","724","541","484","477","602"
"103","[P]","    GOGEN-ALLGUIDE.COM","745","570","666","575","575","600","644","640","667","596","601","551","706","498","583"
"104","[P]","    WEBELEMENTS.COM","548","402","438","345","345","364","168","245","675","858","820","506","665","604","575"
"105","[P]","    USHISTORY.ORG","462","516","479","499","452","436","291","355","597","840","662","608","625","609","572"
"106","[P]","    TOPLUMDUSMANI.NET","681","605","789","796","658","259","218","197","453","584","766","720","514","388","561"
"107","[P]","    MEGAESSAYS.COM","415","416","458","457","641","310","224","199","491","511","430","413","396","425","555"
"108","[P]","    DICOCITATIONS.COM","1,151","1,026","850","789","1,101","882","622","639","700","531","552","755","630","530","515"
"109","[M]","    CODEGURU.COM","645","704","742","690","828","570","556","465","472","620","468","507","408","413","507"
"110","[P]","    NOODLETOOLS.COM","422","482","579","437","475","199","61","114","419","446","500","404","365","423","505"
"111","[P]","    ACTUALICESE.COM","790","775","755","724","750","545","521","441","407","470","429","304","446","478","503"
"112","[P]","    WISSEN.DE","490","429","336","237","338","244","201","145","247","349","392","370","562","521","499"
"113","[P]","    SACRED-TEXTS.COM","561","604","544","563","483","429","482","485","503","552","511","556","499","509","491"
"114","[P]","    THAIGOODVIEW.COM","1,782","1,139","850","523","910","1,136","1,246","1,038","1,159","690","1,002","974","1,139","880","488"
"115","[P]","    NEWWORLDENCYCLOPEDIA.ORG","517","529","622","515","606","363","300","278","471","538","498","414","358","361","478"
"116","[P]","    TRANSLATE.PL","961","775","763","665","804","629","502","468","587","639","532","446","532","481","472"
"117","[P]","    OSZK.HU","274","225","253","241","356","314","249","287","365","439","435","418","482","426","471"
"118","[P]","    STROYPORTAL.RU","331","378","425","451","455","475","469","508","467","482","454","428","431","468","470"
"119","[P]","    U-S-HISTORY.COM","462","478","466","357","463","226","143","132","328","380","333","431","324","393","462"
"120","[P]","    NOTAIRES.FR","301","331","459","309","262","295","305","243","392","400","406","279","358","344","448"
"121","[C]","    Voila.fr Translation","449","413","441","226","328","348","259","257","319","292","305","315","449","371","447"
"122","[P]","    EVERYTHING2.COM","248","345","365","327","423","356","393","322","276","324","290","314","380","348","429"
"123","[P]","    EXAMPLEESSAYS.COM","733","872","893","900","599","372","246","183","402","370","409","298","272","335","425"
"124","[P]","    QURANEXPLORER.COM","493","491","488","451","526","539","682","565","341","358","351","369","420","358","423"
"125","[P]","    ENERGYGUIDE.COM","898","925","918","814","769","879","998","910","926","830","841","736","934","587","418"
"126","[P]","    ONELOOK.COM","482","512","461","438","420","306","382","300","459","430","491","406","395","342","414"
"127","[P]","    EGO4U.DE","449","334","381","317","478","337","122","148","347","345","421","358","348","332","412"
"128","[P]","    BIREME.BR","212","236","317","304","364","261","169","242","309","314","317","171","166","264","402"
"129","[P]","    KWINTESSENTIAL.CO.UK","508","594","700","498","599","493","340","356","630","455","465","389","271","359","401"
"130","[P]","    STARS21.COM","636","613","545","507","519","486","463","375","417","584","457","497","439","360","395"
"131","[P]","    ALA.ORG","314","285","287","294","297","278","242","160","260","300","277","244","373","299","376"
"132","[P]","    PSICOLOGIA-ONLINE.COM","387","548","470","392","466","416","261","313","353","374","341","200","267","300","365"
"133","[P]","    ERUDITION.RU","355","298","402","419","511","209","76","91","300","488","448","588","390","345","364"
"134","[P]","    MANSIONINGLES.COM","580","666","692","488","545","505","385","360","432","539","475","322","349","463","351"
"135","[P]","    AIES.CN","307","278","N/A","151","185","162","207","234","274","292","293","327","337","250","330"
"136","[P]","    LEXICOOL.COM","425","370","471","426","394","342","304","265","336","354","331","334","342","265","318"
"137","[M]","    Informit Network","160","204","240","174","225","206","256","235","244","213","367","280","271","292","309"
"138","[P]","    WWWW4.COM","278","319","335","375","477","250","87","119","298","304","304","459","315","290","308"
"139","[P]","    THEOI.COM","334","330","368","338","360","211","234","256","299","237","263","171","261","316","303"
"140","[C]","    BOOKFINDER.COM","352","379","406","356","331","326","245","323","336","335","290","225","383","189","301"
"141","[P]","    MANAGEMENTHELP.ORG","280","257","262","178","272","277","129","158","198","228","202","154","162","207","295"
"142","[P]","    CALCULATOR.COM","711","215","209","213","230","121","133","106","129","203","234","173","307","260","293"
"143","[P]","    EYEWITNESSTOHISTORY.COM","215","234","269","230","272","171","154","112","176","240","217","209","226","234","289"
"144","[P]","    DEFINICION.ORG","209","375","477","387","437","328","231","373","380","334","291","147","229","271","284"
"145","[P]","    MIRSLOVAREI.COM","648","596","763","761","753","390","219","208","574","852","633","594","331","295","280"
"146","[P]","    MYDICT.COM","390","362","347","336","397","311","294","339","325","287","381","327","288","317","273"
"147","[P]","    IPL.ORG","185","264","339","290","253","148","173","98","221","211","251","187","240","249","269"
"148","[P]","    NYPL.ORG","322","315","356","320","334","254","367","273","312","306","268","325","353","240","265"
"149","[P]","    KDD.CC","144","83","203","237","208","245","205","229","244","199","259","281","229","154","265"
"150","[P]","    MORFIX.CO.IL","1","0","N/A","4","3","5","44","340","337","354","364","349","309","230","265"
"151","[P]","    VICTORIANWEB.ORG","266","250","339","274","351","224","187","152","238","253","274","200","222","207","263"
"152","[P]","    YEMINLISOZLUK.COM","452","377","353","312","327","259","260","248","231","276","331","420","383","260","262"
"153","[P]","    ABIPUR.DE","236","209","226","171","266","190","46","85","167","160","255","243","222","220","261"
"154","[P]","    INFORMATIONSARCHIV.NET","463","424","406","354","336","246","245","311","324","191","286","276","321","269","255"
"155","[P]","    ELITESKILLS.COM","305","320","401","452","343","237","175","230","243","275","271","195","182","207","250"
"156","[P]","    ALLGREATQUOTES.COM","470","316","476","349","581","357","190","298","378","303","330","246","172","181","249"
"157","[P]","    INFOVISUAL.INFO","307","386","350","386","504","294","221","249","346","395","403","330","267","173","246"
"158","[P]","    FAMOUSPOETSANDPOEMS.COM","457","514","570","562","611","285","321","268","302","404","294","294","158","187","241"
"159","[P]","    LOTSOFESSAYS.COM","206","255","398","407","488","282","150","176","225","365","403","191","168","171","238"
"160","[P]","    NCIKU.COM","193","150","237","235","158","119","167","167","158","196","181","217","275","203","225"
"161","[P]","    PANTHEON.ORG","183","228","215","243","229","153","205","116","178","218","176","137","173","210","220"
"162","[P]","    WIKILEARNING.COM","343","428","496","440","532","382","243","307","343","360","301","179","194","221","216"
"163","[P]","    VISUALTHESAURUS.COM","228","273","283","246","196","180","164","285","178","213","224","200","217","206","215"
"164","[P]","    FRENCH-LINGUISTICS.CO.UK*","202","227","243","215","224","213","116","108","281","277","199","165","246","173","210"
"165","[P]","    GEOGRAPH.ORG.UK","435","571","562","425","353","421","364","432","398","532","430","447","264","189","207"
"166","[P]","    BrainyMedia Sites","204","196","132","188","212","153","165","130","154","137","134","104","142","138","202"
"167","[P]","    ZENO.ORG","199","147","170","191","193","184","140","112","161","207","238","196","238","195","199"
"168","[P]","    ECHEAT.COM","127","193","154","137","244","107","70","62","83","145","158","163","103","139","191"
"169","[P]","    POEMSOURCE.COM","482","788","358","363","660","385","233","267","219","251","354","375","258","349","184"
"170","[M]","    POETRY.COM","63","88","153","147","106","99","95","85","95","123","87","136","143","122","173"
"171","[P]","    FOURMILAB.CH","240","182","240","117","216","161","149","166","293","207","228","173","157","166","170"
"172","[P]","    AMERICANRHETORIC.COM","308","179","308","264","188","142","88","137","219","150","193","113","260","143","168"
"173","[P]","    NATIVE-LANGUAGES.ORG","273","221","277","243","249","253","208","203","262","322","293","178","131","182","167"
"174","[P]","    CUCUMIS.ORG","213","209","213","168","167","175","206","150","149","180","179","174","158","157","160"
"175","[P]","    ARTCYCLOPEDIA.COM","250","272","268","260","212","125","96","167","171","232","181","158","182","129","158"
"176","[P]","    BIYOGRAFI.INFO","252","214","250","285","187","89","73","85","78","113","125","130","166","97","158"
"177","[P]","    FREEDICT.COM","300","224","241","234","187","217","203","205","192","165","156","156","200","135","152"
"178","[P]","    ARKITERA.COM","219","222","214","220","184","156","133","151","144","167","186","171","170","116","149"
"179","[P]","    FREELANG.NET","321","200","180","186","224","212","200","201","220","149","183","172","197","123","144"
"180","[P]","    DICTS.INFO","338","488","304","326","268","271","252","223","323","233","216","198","187","110","144"
"181","[P]","    CUMMINGSSTUDYGUIDES.NET","314","315","250","278","322","161","116","109","276","263","294","183","256","212","144"
"182","[P]","    LIB.OH.US","303","251","217","230","249","282","263","261","279","239","176","164","186","178","142"
"183","[P]","    ALLWORDS.COM","190","114","140","156","145","178","143","116","163","134","108","91","75","90","138"
"184","[P]","    MOLWICK.COM","145","168","229","198","173","141","93","115","142","118","112","78","63","103","134"
"185","[P]","    LUMINARIUM.ORG","296","175","232","181","218","170","88","107","156","163","230","157","181","186","134"
"186","[P]","    LEXINTER.NET","187","181","281","375","155","192","154","70","136","125","164","150","172","194","134"
"187","[P]","    MADSCI.ORG","105","101","150","116","124","80","67","50","94","114","128","99","111","104","131"
"188","[P]","    ATLANTS.LV","177","179","160","166","163","86","37","43","97","118","110","123","119","101","131"
"189","[P]","    WORDWEBONLINE.COM","143","129","198","149","142","116","102","108","122","156","115","159","206","101","128"
"190","[P]","    QUOTELAND.COM","205","215","244","227","250","199","201","213","183","154","143","181","143","187","120"
"191","[P]","    YOURCHILDLEARNS.COM","218","267","180","137","127","119","200","133","191","178","159","120","129","145","117"
"192","[P]","    ILMAINENSANAKIRJA.FI","123","106","115","93","127","95","81","101","102","106","123","84","109","88","115"
"193","[P]","    GLOSSARY.RU","245","169","214","222","262","170","67","53","161","197","178","240","175","112","113"
"194","[P]","    POEMOFQUOTES.COM","114","134","165","135","113","59","43","57","56","45","68","65","66","120","112"
"195","[P]","    TOPPRODUCT.NL","203","149","139","129","139","104","120","97","92","113","103","80","121","86","112"
"196","[P]","    LKWDPL.ORG","101","273","115","76","84","45","30","23","79","47","76","68","60","123","111"
"197","[P]","    LECTLAW.COM","184","146","148","158","183","147","99","110","102","102","127","87","86","107","98"
"198","[P]","    WEBSTERS-ONLINE-DICTIONARY.ORG","463","454","458","426","422","307","365","381","347","322","50","117","94","55","95"
"199","[P]","    Antiqbook","91","101","142","76","77","55","44","64","65","76","67","89","62","82","93"
"200","[P]","    PETS4YOU.COM","99","172","145","100","122","107","58","94","83","89","96","72","61","74","90"
"201","[P]","    ACADEMON.COM","82","118","187","194","171","74","86","53","83","132","129","86","56","65","89"
"202","[P]","    EPNET.COM","151","103","138","77","106","98","67","70","148","85","98","71","101","88","87"
"203","[P]","    TDK.ORG.TR","85","57","74","58","55","34","39","28","51","65","52","79","108","85","85"
"204","[P]","    SPRINGERLINK.COM","3,629","3,748","4,057","4,312","4,326","3,222","2,512","2,639","2,968","3,036","1,473","40","57","64","82"
"205","[P]","    PLANETADISSER.COM","101","104","120","154","245","129","19","26","42","73","91","107","48","65","81"
"206","[P]","    BEST-LOVE-POEMS.COM","304","437","298","238","252","280","215","147","116","138","119","107","86","65","80"
"207","[P]","    VITALREC.COM","180","185","202","96","181","96","143","137","72","110","74","112","71","107","79"
"208","[P]","    JURIS.DE","85","120","99","96","164","148","126","84","145","91","148","150","163","146","70"
"209","[P]","    SAIDWHAT.CO.UK","113","100","85","82","153","77","70","39","69","73","68","100","25","43","65"
"210","[P]","    WISDOMQUOTES.COM","441","413","368","262","222","283","178","154","81","91","91","171","81","79","63"
"211","[P]","    NETPOETS.COM","73","80","104","88","88","57","31","47","50","94","46","53","32","44","57"
"212","[P]","    DICODUNET.COM","107","110","74","123","96","67","31","N/A","66","65","86","61","94","50","55"
"213","[P]","    SOBRESITES.COM","63","83","74","60","72","44","35","51","45","31","24","23","29","62","55"
"214","[P]","    ABCPEDIA.COM","156","260","266","190","273","192","101","148","155","186","136","79","64","52","49"
"215","[P]","    SEVGILIYE.COM","200","377","121","91","108","86","91","72","56","62","76","75","80","115","41"
"216","[P]","    TRANSLATION-GUIDE.COM","182","88","79","66","85","71","61","30","81","59","39","31","52","28","41"
"217","[P]","    NEDIR.NET","77","48","70","62","54","33","24","36","37","43","32","32","30","53","35"
"218","[P]","    LEARNENGLISH.ORG.UK","62","60","45","40","55","36","20","34","50","69","77","45","44","29","35"
"219","[P]","    NORTHPOLE.COM","193","49","69","39","30","46","31","46","50","85","401","1,165","88","28","34"
"220","[P]","    LYCAEUM.ORG","32","0","N/A","N/A","N/A","N/A","N/A","N/A","N/A","N/A","N/A","N/A","20","N/A","31"
"221","[P]","    FOREIGNWORD.COM","47","76","74","58","44","10","38","45","28","26","35","20","20","29","31"
"222","[M]","    5BALLOV.RU","2","N/A","N/A","N/A","N/A","N/A","N/A","N/A","23","54","101","27","18","40","23"
"223","[P]","    KNOWLEDGERUSH.COM","111","117","100","42","47","23","44","16","19","18","22","14","18","45","19"
"224","[P]","    ESSAYFINDER.COM","47","82","61","60","16","12","21","43","39","26","14","10","10","N/A","18"
"225","[P]","    LABLAA.ORG","2","1","N/A","N/A","N/A","N/A","N/A","N/A","N/A","N/A","48","26","N/A","N/A","N/A"
"226","[P]","    SOURTIMES.ORG","53","34","26","28","N/A","N/A","N/A","N/A","N/A","N/A","N/A","N/A","N/A","N/A","N/A"
"227","[P]","    GROUNDHOG.ORG","34","307","N/A","N/A","N/A","N/A","N/A","N/A","N/A","N/A","N/A","N/A","68","108","N/A"
"228","[P]","    BUSCALIBROS.CL","162","295","509","473","512","397","203","N/A","N/A","N/A","N/A","N/A","N/A","N/A","N/A"
"229","[P]","    SESLISOZLUK.COM","135","100","98","96","104","46","58","20","N/A","N/A","N/A","N/A","N/A","N/A","N/A"
"230","[P]","    YAPPR.COM","13","15","11","N/A","N/A","N/A","N/A","N/A","N/A","N/A","N/A","N/A","N/A","N/A","N/A"
"231","[M]","    COURSEWORK.INFO","430","609","669","622","646","358","85","N/A","N/A","N/A","N/A","N/A","N/A","N/A","N/A"
"232","[P]","    WAPEDIA.MOBI","N/A","3","N/A","N/A","N/A","N/A","N/A","N/A","N/A","N/A","N/A","N/A","N/A","N/A","N/A"
"233","[P]","    ESSAYTOWN.NET","52","52","97","99","78","43","N/A","N/A","N/A","N/A","N/A","N/A","N/A","N/A","N/A"
"234","[P]","    INFORMAWORLD.COM","38","2","N/A","N/A","N/A","N/A","N/A","N/A","N/A","N/A","N/A","N/A","N/A","N/A","N/A"
"235","[P]","    WEBNARY.COM","N/A","0","N/A","N/A","N/A","N/A","N/A","N/A","N/A","N/A","N/A","N/A","N/A","N/A","N/A"
"236","[P]","    FOOTNOTE.COM","2","1","N/A","N/A","N/A","N/A","N/A","N/A","N/A","N/A","N/A","N/A","N/A","N/A","N/A"
"237","[P]","    BIBILGI.COM","15","32","N/A","N/A","N/A","N/A","N/A","N/A","N/A","N/A","N/A","N/A","N/A","N/A","N/A"
"238","[P]","    PRIVATESOZLUK.COM","40","46","59","44","42","15","24","23","N/A","N/A","N/A","N/A","N/A","N/A","N/A"
"","MyMetrix Legend","","","","","",""
"","[P]         Property","","","","","",""
"","[M]         Media Title","","","","","",""
"","[C]         Channel","","","","","",""
"","[S]         Subchannel","","","","","",""
"","[G]         Group","","","","","",""
"","[SG]         Subgroup","","","","","",""
"","[E]         Custom Entity","","","","","",""
"","[N]         Ad Network","","","","","",""
"","[A#]         Alternate Rollup","","","","","",""
"","[X1]         Extended Network","","","","","",""
"","[BSN]         Buy Side Advertising Network","","","","","",""
"","[DSP]         Demand Side Platform","","","","","",""
"","[EX]         Exchanges","","","","","",""
"","[SSP]         Sell Side Platform","","","","","",""
"","(U)         Fully Unified - Used to identify entities that are measured and reported completely based on Panel-Centric Unified (Panel + Census) measurement.","","","","","",""
"","(u)         Partially Unified - Used to identify entities with at least one child entity that is Fully Unified, but not all.","","","","","",""
"","C         Census Only - Used to identify entities that are measured and reported completely based on Census without panel.","","","","","",""
"","++         Used to identify entities that are projected completely based on the entity?s census tagged data.","","","","","",""
"","+         Used to identify entities with at least one child entity that is projected completely based on the child?s census tagged data , but not all.","","","","","",""
"","w/History         Trend combines media previously reported under different parent and/or different level.","","","","","",""
"","*         Indicates that the entity has assigned traffic to certain pages in the domain to other entities","","","","","",""
"","**         Indicates that the entity is an advertising network.","","","","","",""
"","(v)         Indicates that the advertising network has been verified by comScore.","","","","","",""
"","...         Indicates data used fell below minimum reporting standards and/or data not available.","","","","","",""
"","N/A         Indicates data is not available in the data set for reporting for the specified time period.","","","","","",""
"","#         Caution - small base may result in unstable projection.","","","","","",""
"","##         Directional purposes only - base too unstable for reliable projection.","","","","","",""
""," ","","","","","",""
"","","","","","","",""
"","
comScore made an update to Worldwide population estimate. Please refer to http://mymetrix.comscore.com/app/ExtendedMMXUniversalFootNote.aspx for more information.","","","","","",""

