﻿"Multi-Country Media Trend","","","Geography :: Worldwide, Middle East - Africa, Asia Pacific, Europe, Latin America, North America, China, India, United States","","","","","","My Metrix"
"Wikimedia Foundation Sites","","","Universe :: Home and Work","","","","","","(c)2014 comScore, Inc"
"","","","Time Period :: October 2012 - December 2013","","","","","",""
"","","","Target :: Persons 15+","","","","","",""
"","","","Media :: Wikimedia Foundation Sites","","","","","",""
"","","","Measures :: Total Unique Visitors (000)","","","","","",""
"","","","Date :: 1/22/2014","","","","","",""

"","","[P] Wikimedia Foundation Sites","","","","","","","","","","","","",""
"","","Oct-2012","Nov-2012","Dec-2012","Jan-2013","Feb-2013","Mar-2013","Apr-2013","May-2013","Jun-2013","Jul-2013","Aug-2013","Sep-2013","Oct-2013","Nov-2013","Dec-2013"
"1","    World-Wide","488,364","484,489","472,552","488,473","482,999","517,610","516,749","521,767","499,578","492,107","496,875","505,904","530,471","532,699","490,200"
"2","    Europe","183,372","184,660","183,718","192,293","182,809","193,348","190,229","192,353","182,455","176,767","176,114","184,950","195,496","202,097","190,982"
"3","    Asia Pacific","108,013","105,964","105,288","109,258","104,931","113,263","115,045","119,197","117,677","121,316","120,185","116,734","120,838","119,321","113,753"
"4","    North America","100,152","97,462","96,966","99,277","96,653","100,735","100,633","98,666","92,442","95,094","94,693","96,520","99,543","96,223","89,238"
"5","    United States","85,252","82,516","82,348","84,506","82,348","85,825","85,546","83,875","78,190","81,411","81,212","82,731","85,391","82,397","76,353"
"6","    Latin America","55,850","54,874","45,777","47,216","60,701","68,711","69,779","69,932","68,162","61,155","67,071","68,179","72,075","70,864","54,761"
"7","    Middle East - Africa","40,977","41,530","40,802","40,429","37,906","41,553","41,062","41,620","38,842","37,774","38,812","39,522","42,520","44,193","41,467"
"8","    India","22,749","22,191","23,339","24,140","23,104","24,934","24,889","25,892","26,861","28,658","28,286","27,181","28,677","28,160","27,254"
"9","    China","4,965","4,866","4,457","4,194","3,218","4,608","7,412","8,173","7,265","7,996","7,828","6,147","7,900","8,437","8,684"
"","MyMetrix Legend","","","","","",""
"","[P]         Property","","","","","",""
"","[M]         Media Title","","","","","",""
"","[C]         Channel","","","","","",""
"","[S]         Subchannel","","","","","",""
"","[G]         Group","","","","","",""
"","[SG]         Subgroup","","","","","",""
"","[E]         Custom Entity","","","","","",""
"","[N]         Ad Network","","","","","",""
"","[A#]         Alternate Rollup","","","","","",""
"","[X1]         Extended Network","","","","","",""
"","[BSN]         Buy Side Advertising Network","","","","","",""
"","[DSP]         Demand Side Platform","","","","","",""
"","[EX]         Exchanges","","","","","",""
"","[SSP]         Sell Side Platform","","","","","",""
"","[NE]         Network Custom Entity","","","","","",""
"","(u)         Partially Unified - Used to identify entities with at least one child entity that is Fully Unified, but not all.","","","","","",""
"","(U)         Fully Unified - Used to identify entities that are measured and reported completely based on Panel-Centric Unified (Panel + Census) measurement.","","","","","",""
"","C         Census Only - Used to identify entities that are measured and reported completely based on Census without panel","","","","","",""
"","+         Used to identify entities with at least one child entity that is projected completely based on the child's census tagged data , but not all.","","","","","",""
"","++         Used to identify entities that are projected completely based on the entity's census tagged data.","","","","","",""
"","T         Used to identify entities where one or more child entity is projected based on census tagged data","","","","","",""
"","[0]         This Entity is currently not tagged on any platform","","","","","",""
"","[1]         This Entity is currently tagged on 1 platform","","","","","",""
"","[2]         This Entity is currently tagged on 2 platforms","","","","","",""
"","[3]         This Entity is currently tagged on 3 platforms","","","","","",""
"","[4]         This Entity is currently tagged on 4 platforms","","","","","",""
"","w/History         Trend combines media previously reported under different parent and/or different level.","","","","","",""
"","*         Indicates that the entity has assigned traffic to certain pages in the domain to other entities","","","","","",""
"","**         Indicates that the entity is an advertising network.","","","","","",""
"","(v)         Indicates that the advertising network has been verified by comScore.","","","","","",""
"","...         Indicates data used fell below minimum reporting standards and/or data not available.","","","","","",""
"","N/A         Indicates data is not available in the data set for reporting for the specified time period.","","","","","",""
"","#         Caution - small base may result in unstable projection.","","","","","",""
"","##         Directional purposes only - base too unstable for reliable projection.","","","","","",""
""," ","","","","","",""
"","","","","","","",""
"","Demographic insights through comScore Audience Analytics products have changed for PC Centric data in the United States from July 2013 data onwards as per the Children's Online Privacy Protection Act (COPPA). For details, please access https://my.comscore.com/welcome/learn.aspx?q=%2fgeonext%2fcomscore%2fLauncher.geo%3funified%3dresource_83785.
","","","","","",""
