﻿"Multi-Country Media Trend","","","Geography :: Worldwide, Middle East - Africa, Asia Pacific, Europe, Latin America, North America, China, India, United States","","","","","","My Metrix"
"Wikimedia Foundation Sites","","","Location :: Home and Work","","","","","","(c)2012 comScore, Inc"
"","","","Time Period :: May 2011 - July 2012","","","","","",""
"","","","Target :: Persons 15+","","","","","",""
"","","","Media :: Wikimedia Foundation Sites","","","","","",""
"","","","Measures :: Total Unique Visitors (000)","","","","","",""
"","","","Date :: 8/20/2012","","","","","",""

"","","[P] Wikimedia Foundation Sites","","","","","","","","","","","","",""
"","","May-2011","Jun-2011","Jul-2011","Aug-2011","Sep-2011","Oct-2011","Nov-2011","Dec-2011","Jan-2012","Feb-2012","Mar-2012","Apr-2012","May-2012","Jun-2012","Jul-2012"
"1","    World-Wide","411,061","399,362","393,543","422,779","454,529","476,627","474,723","457,063","482,157","475,699","489,402","473,380","492,393","469,644","451,821"
"2","    Europe","161,311","153,883","146,724","152,109","166,505","176,918","178,580","173,496","184,668","179,385","180,827","176,376","185,344","174,151","163,811"
"3","    Asia Pacific","84,666","86,539","90,378","97,661","102,341","106,128","105,296","103,851","108,186","105,783","110,909","104,524","108,087","107,603","108,690"
"4","    North America","82,081","80,753","83,859","88,277","93,193","96,252","94,689","94,413","99,821","98,049","97,001","96,664","97,378","93,676","94,146"
"5","    United States","69,353","68,320","71,855","75,535","79,656","82,245","80,497","80,464","85,219","83,537","82,588","81,583","82,470","79,303","80,127"
"6","    Latin America","49,095","47,203","42,700","52,983","56,613","57,210","56,544","45,235","47,386","51,425","58,584","55,227","58,825","54,654","49,387"
"7","    Middle East - Africa","33,908","30,985","29,882","31,749","35,877","40,119","39,614","40,068","42,097","41,056","42,081","40,589","42,759","39,560","35,788"
"8","    India","13,701","14,163","14,979","15,944","16,180","16,019","16,425","16,425","17,205","18,771","19,402","18,688","20,016","21,031","21,905"
"9","    China","3,492","3,960","4,814","5,163","5,709","7,386","7,355","8,803","8,766","7,886","9,249","6,666","5,917","5,890","5,761"
"","Media Metrix 2.0 Legend","","","","","",""
"","[P]         Property","","","","","",""
"","[M]         Media Title","","","","","",""
"","[C]         Channel","","","","","",""
"","[S]         Subchannel","","","","","",""
"","[G]         Group","","","","","",""
"","[SG]         Subgroup","","","","","",""
"","[E]         Custom Entity","","","","","",""
"","[N]         Ad Network","","","","","",""
"","[A#]         Alternate Rollup","","","","","",""
"","[X1]         Extended Network","","","","","",""
"","[BSN]         Buy Side Advertising Network","","","","","",""
"","[DSP]         Demand Side Platform","","","","","",""
"","[EX]         Exchanges","","","","","",""
"","[SSP]         Sell Side Platform","","","","","",""
"","(U)         Fully Unified - Used to identify entities that are measured and reported completely based on Panel-Centric Unified (Panel + Census) measurement.","","","","","",""
"","(u)         Partially Unified - Used to identify entities with at least one child entity that is Fully Unified, but not all.","","","","","",""
"","C         Census Only - Used to identify entities that are measured and reported completely based on Census without panel.","","","","","",""
"","++         Used to identify entities that are projected completely based on the entity?s census tagged data.","","","","","",""
"","+         Used to identify entities with at least one child entity that is projected completely based on the child?s census tagged data , but not all.","","","","","",""
"","w/History         Trend combines media previously reported under different parent and/or different level.","","","","","",""
"","*         Indicates that the entity has assigned traffic to certain pages in the domain to other entities","","","","","",""
"","**         Indicates that the entity is an advertising network.","","","","","",""
"","(v)         Indicates that the advertising network has been verified by comScore.","","","","","",""
"","...         Indicates data used fell below minimum reporting standards and/or data not available.","","","","","",""
"","N/A         Indicates data is not available in the data set for reporting for the specified time period.","","","","","",""
"","#         Caution - small base may result in unstable projection.","","","","","",""
"","##         Directional purposes only - base too unstable for reliable projection.","","","","","",""
""," ","","","","","",""

